{
  "log": {
    "level": 2
  },
  "filebox": {
    "provider": "mock"
  },
  "s3": {
    "bucket": "file-box-poc"
  },
  "routePrefix": "/smith-poc-file-box-api",
  "acl": {
    "authCHeader": "x-api-key",
    "apiKeys": [
      {
        "apiKey": "e6ffd1e1-f423-4c2d-b82b-2473f673c2ba",
        "forceMock": true,
        "roles": [
          "full-access"
        ]
      },
      {
        "apiKey": "fca92103-e03e-4e87-b30b-999822783335",
        "roles": [
          "full-access"
        ]
      },
      {
        "apiKey": "c75ca992-4cba-4167-9703-c09a12c6684c",
        "roles": [
          "test"
        ]
      }
    ],
    "roles": [
      {
        "role": "full-access",
        "paths": [
          ".*"
        ]
      },
      {
        "role": "test",
        "paths": [
          "^\/test\/.*"
        ]
      }
    ]
  }
}